miRetrieve • miRetrieve
…
Next to plotting the top terms as a bar plot, top terms can also be visualized as a word cloud with plot_wordcloud().7

# Word cloud of miR-21
plot_wordcloud(df_crc,
               mir = "miR-21",
               max.terms = 40,
               colours = c("lightblue"))
#> # A tibble: 1,118 x 3
#>        PMID word           n
#>       <dbl> <chr>      <int>
#>  1 17702597 fu             3
#>  2 17702597 neoplastic     3
#>  3 17968323 metastasis     3
#>  4 17968323 pdcd4         11
#>  5 18196926 crc            6
#>  6 18196926 tumor          3
#>  7 18196926 tumors         3
#>  8 18230780 cancer         4
#>  9 18230780 colon          4
#> 10 18230780 patients       3
#> # … with 1,108 more rows
…
compare_mir_terms() plots the count of top miRNA-term associations, whereas
compare_mir_terms_log2() compares the miRNA-term association between two subjects on a log2-scale.8

# Compare term frequency for miR-21 between topics
compare_mir_terms(df_combined,
                  mir = "miR-21", 
                  top = 10)

# Compare term frequency for miR-21 between two topics on a log2-scale
compare_mir_terms_log2(df_combined,
                       mir = "miR-21",
                       top = 10)
#> $data.frame
#> # A tibble: 23 x 5
#>    word         number_topic     CRC Diabetes log2_ratio
#>    <fct>               <int>   <dbl>    <dbl>      <dbl>
#>  1 blood                   2 0.0899       0.1     -0.154
#>  2 fibrosis                2 0.00375      0.2     -5.74 
#>  3 hemoglobin              2 0.00375      0.2     -5.74 
#>  4 progenitor              2 0.00375      0.2     -5.74 
#>  5 rats                    2 0.00375      0.2     -5.74 
#>  6 tubular                 2 0.00749      0.2     -4.74 
#>  7 tnf                     2 0.0112       0.2     -4.15 
#>  8 egfr                    2 0.0150       0.2     -3.74 
#>  9 pathogenesis            2 0.0337       0.2     -2.57 
#> 10 resistance              2 0.0449       0.2     -2.15 
#> # … with 13 more rows
…
